197135 240918 443
11855 145253 375
16688 881817 525
318839 914508 525
198681 590110 470
808465 832249 450
865418 441636 525
376972 674290 509
359455 116922 443
65106 926440 525
977059 181337 525
174401 859063 525
669980 349136 509
743158 67690 509
584416 929621 525
940307 945972 383
186463 310941 443
81987 21302 351
863201 232235 525
488011 564906 470
850152 493396 525
367486 175264 443
456981 809779 509
139781 369824 443
91874 118640 354
86317 424687 449
269930 944651 525
980677 950264 458
2341 663388 509
449391 193842 449
797932 136057 509
736038 122522 509
930811 703947 525
290092 670447 509
948920 303450 525
772159 763737 468
386277 220893 443
887436 259051 525
548147 296039 470
334760 621260 470
138494 440098 449
154208 310242 443
591351 556301 434
128784 141314 344
95597 369413 443
13332 213520 383
898543 141241 525
40982 48031 314
715340 225143 509
618566 190595 470
101066 260977 443
751439 473956 509
76777 395993 443
56629 41288 340
652876 574065 509
816186 983418 525
429127 145713 449
983734 387164 525
343784 482727 449
445458 757540 509
889942 582954 525
249360 59838 443
571163 732633 509
856142 173512 525
246711 660005 509
239300 897866 525
392405 212087 443
103280 291363 443
704466 504837 509
49311 127054 354
420812 289334 449
70927 772236 509
138899 713614 509
819949 150015 509
482036 232067 449
195663 507986 449
101274 237890 443
720343 186205 509
689211 777227 504
963936 264690 525
674477 132999 509
882635 550751 525
610935 617433 447
103985 766838 509
685327 164501 509
511146 895569 525
312750 980563 525
215069 366789 443
1947 201525 383
410880 101220 449
318716 134575 443
663279 485471 509
815383 569717 509
10559 970830 525
631274 583130 509
481982 894577 525
716186 343691 509
855511 63090 525
87409 525563 470
690461 412745 509
919188 311126 525
221855 242766 443
171668 446037 449
956263 327970 525
720159 858380 525
812683 520628 509
694880 230766 509
137187 807390 509
306538 434167 449
685113 611882 509
282177 18232 443
856075 789617 525
231642 134865 443
750815 349666 509
730599 571901 509
845548 63393 525
298010 228091 443
172985 836242 509
770245 121586 509
556121 908948 525
429724 919910 525
176973 599268 470
833368 692685 504
355192 560919 470
683472 90958 509
621313 745383 509
151238 58686 375
526959 407710 470
27038 240802 443
407180 193170 443
466475 684968 509
166899 92861 383
810022 864861 525
53871 420665 449
247216 588471 470
622430 808106 509
429590 618957 470
820771 740349 468
615296 700727 509
211282 162511 373
354116 804032 509
737576 268205 509
175448 915177 525
502232 789774 509
951996 494523 525
490846 859230 525
158536 377871 443
439592 673956 509
32522 475808 449
5485 653431 509
525956 685718 509
129137 678518 509
317640 601229 470
924194 884290 476
490989 892687 525
871646 121262 525
513788 971568 525
590490 649490 509
947936 626001 525
763065 593868 509
246743 568851 470
342787 429637 449
809076 294898 509
826942 863164 525
449087 705889 509
382732 739176 509
497920 786773 509
661581 406583 509
986046 630583 525
529485 414033 470
472488 987211 525
796615 872479 525
70172 911610 525
583039 228070 470
787330 675762 504
803710 69977 509
27076 203959 383
947347 859252 507
192616 301355 443
423760 963918 525
253710 916916 525
496820 469681 426
657593 348671 509
834034 872222 525
41757 911822 525
133562 875426 525
368895 913927 525
462979 83198 449
413515 623575 470
617983 164192 470
794192 563834 509
432321 196083 449
834660 147951 509
400947 311441 441
357995 86540 443
778247 150859 509
270389 780689 509
205725 105815 383
571748 337076 470
543362 795093 509
423422 110224 449
388951 854211 525
223314 754295 509
176014 818774 509
246000 358348 441
486528 587017 470
537218 340651 470
528929 202027 470
768119 537952 509
497129 81884 449
998805 925365 507
517223 534807 439
458401 237298 449
914434 710488 525
252208 576485 470
939681 381221 525
454820 277231 449
822198 767494 468
679524 98727 509
154330 594363 470
778186 860169 525
866115 489602 525
963856 698877 525
405727 627653 509
399587 27330 443
228278 532134 470
233634 896139 525
518904 269691 470
513040 968309 525
339531 261294 407
776327 126444 509
489631 91548 449
868257 436604 525
819962 116538 509
581653 332807 470
780270 606011 509
592636 224142 470
583587 264049 470
943778 563955 525
23088 529174 470
118086 909006 525
555610 234769 470
291093 336959 384
253049 378598 441
626262 853043 525
400658 992485 525
81336 450460 449
138698 597550 470
596706 419831 470
1 999999 525
