972922 380366 525
894078 772240 525
317691 304166 384
561582 783052 509
884799 737808 525
569735 70992 470
92400 219517 386
847170 377044 525
471291 776032 509
199751 582124 470
408817 514196 470
837175 96370 509
428545 152677 449
294358 250450 407
936040 556808 525
4058 814311 509
220312 671061 509
885244 230885 525
193658 581571 470
279349 663322 509
511641 131387 449
541915 906455 525
997571 668151 525
154385 676068 509
573546 417067 470
585433 964465 525
202500 479348 449
20120 796343 509
133527 111530 349
173492 729543 509
279399 315323 389
798834 934599 525
714990 857893 525
468185 846587 525
300491 938447 525
221870 834496 509
989050 830109 525
128256 117505 336
76608 841172 525
207664 260582 443
722024 887093 525
382640 784147 509
824416 852898 525
506072 196461 449
626508 209485 509
394634 479907 449
748496 976888 525
905018 577012 525
793458 695244 504
444532 726647 509
1 10 20
100 200 125
201 210 89
900 1000 174
1 2 2
100 101 26
42 42 9
2 16 20
3 17 20
2000 1000 182
999998 999999 259
999999 999999 259
500000 600000 470
600000 700000 509
700000 800000 504
900000 999999 507
517484 351146 470
217979 116752 386
947518 369138 525
630034 240848 509
269802 869724 525
999292 535744 525
670379 44947 509
220700 450755 449
679728 228439 509
224839 75035 386
697416 774425 504
574352 3792 470
620156 11104 470
239469 228953 443
598638 18464 470
743884 389777 509
733559 999799 525
562097 806658 509
448888 938551 525
441904 959241 525
939755 528428 525
318115 281294 389
921862 468853 525
847806 387899 525
786255 602027 509
523304 188227 470
781733 248529 509
557530 933221 525
22365 366873 443
873914 293155 525
82386 777345 509
111247 309369 443
582741 685982 509
921500 727216 525
16808 475814 449
653318 945627 525
111219 212213 383
27747 853793 525
780840 241724 509
566087 440396 470
488061 243191 449
808216 524778 509
285210 531762 470
380487 542899 470
546096 836118 509
820238 101154 509
133195 573196 470
493494 283087 449
353603 798346 509
903006 811099 525
614639 929470 525
726971 879042 525
583696 382398 470
240836 560390 470
513028 14893 470
904496 822571 525
128284 92058 354
427941 897890 525
641365 188232 509
38294 923204 525
617729 359125 470
517211 572205 452
790213 706051 468
513435 61164 470
731607 456833 509
730766 119395 509
802038 808974 406
542120 847797 525
312299 375250 441
262449 940630 525
29826 411938 449
626140 391809 470
743104 554751 509
342696 4978 443
727670 220633 509
75698 449458 449
550246 936898 525
33268 813519 509
323744 198115 443
783189 822438 468
801012 249087 509
409291 735199 509
938485 133952 525
355595 54929 443
586077 885497 525
629219 563748 509
574001 357910 470
577672 187863 470
905309 770470 525
243809 171827 443
712342 105928 509
249863 618677 470
115955 607916 470
803209 40593 509
9506 114120 354
850965 148340 525
46322 676042 509
73010 332949 443
743518 693934 504
385174 181996 443
288224 105276 443
827065 198230 509
131300 164174 383
349288 695412 509
512179 741255 509
902480 144010 525
636045 574389 509
37080 937685 525
64487 787117 509
290976 164559 443
853635 380481 525
690682 42100 509
692168 170917 509
734206 626728 504
224535 458755 449
347432 379239 423
877194 643434 525
924109 250282 525
874675 626877 525
940107 310147 525
330595 780489 509
775392 595428 509
895590 337320 525
150535 388108 443
791317 584967 509
396242 844173 525
111240 792503 509
796172 96652 509
23264 597550 470
984582 487475 525
996008 147309 525
773636 811769 468
754840 159450 509
956222 924636 507
452058 813789 509
554746 16248 470
800191 16011 509
17713 811852 509
184502 529323 470
995272 192538 525
521317 910162 525
558339 71401 470
486874 793822 509
764727 960507 525
363474 511068 449
195660 520162 470
798701 307137 509
181484 836136 509
153113 845160 525
333395 46478 443
230030 319983 443
948307 173176 525
188924 129942 383
420579 352261 449
467938 60224 449
944160 494494 525
396579 251686 441
720470 979923 525
3546 391834 443
920838 334493 525
