243832 451815 449
930360 280488 525
481229 239264 449
923063 311503 525
67035 45882 340
846609 922423 476
304407 79772 443
44600 861628 525
529512 387119 470
652050 604116 509
523186 120252 470
110671 834086 509
832800 108254 509
424682 214251 449
812756 12540 509
623387 305510 470
600338 425522 470
667964 786392 504
189323 828827 509
744080 228141 509
302915 318 443
448254 550704 470
812071 220237 509
968976 329620 525
816722 714036 468
774788 983436 525
187861 427861 449
425042 314329 449
363394 25525 443
553097 285936 470
600858 398098 470
917971 318661 525
103934 573208 470
664213 914003 525
258127 342130 407
271673 456899 449
923508 371413 525
702332 662779 442
159692 667662 509
273224 908719 525
959532 939463 507
555269 957010 525
891650 653155 525
90485 369257 443
281432 860046 525
188412 446153 449
617595 288817 470
792658 208894 509
950832 990464 458
744200 316194 509
186450 477451 449
547098 902644 525
883604 919349 476
742108 629154 504
285289 523848 470
737377 803486 468
293281 706570 509
124083 13566 354
553721 278781 470
340908 608236 470
24473 58683 340
891311 660895 525
228195 174328 386
144466 114058 375
254171 468912 449
614300 567444 434
229716 259897 443
780704 168142 509
421682 161984 449
926401 449738 525
621074 300678 470
752937 719545 424
981353 66386 525
107197 98060 354
510161 467179 426
453723 321558 449
346326 648415 509
312849 726490 509
62657 314124 443
402834 101263 443
775317 444505 509
82389 55580 351
869983 272237 525
745559 337141 509
925050 22691 525
939767 647624 525
760474 813070 468
398345 917878 525
380964 90666 443
56054 848395 525
189974 514745 470
109334 952112 525
505486 349568 449
572421 397374 470
280388 210315 443
591560 207352 470
189501 171593 365
351115 452797 449
459596 148203 449
93419 994722 525
48414 202065 383
74335 614469 470
544835 667198 509
393006 301496 441
336102 317356 384
478137 616032 470
188047 667420 509
649601 965425 525
558256 706378 509
976133 476344 525
388847 602297 470
401793 215083 443
790792 466252 509
367516 965269 525
269592 802410 509
814943 542726 509
66875 960453 525
536017 391930 470
393443 400793 405
279676 810683 509
789816 253216 509
424054 763661 509
81782 963420 525
511952 56465 470
627311 723345 504
656827 87217 509
699172 25109 509
168568 583700 470
160588 167971 352
70975 936325 525
558894 43220 470
807337 64747 509
613852 299796 470
515672 330306 470
89232 677134 509
355895 257975 441
15134 962730 525
481443 975433 525
723965 115225 509
316708 848894 525
999764 876550 507
784840 604091 509
522400 119032 470
592604 385333 470
485567 701545 509
379306 428275 449
415718 108710 449
835158 168738 509
962316 314693 525
124411 939035 525
251146 402626 441
330033 959620 525
548626 844899 525
62202 850691 525
766682 896940 525
389660 374136 436
297085 867615 525
457493 105645 449
9325 700283 509
953572 441327 525
783935 190870 509
343609 595085 470
953265 920258 507
557700 898849 525
908793 465555 525
774640 782217 437
495081 959974 525
192832 175281 365
175762 72252 383
352091 132453 443
816322 280666 509
128860 65118 354
522736 757897 509
777631 521718 509
309599 82956 443
737657 463706 509
728561 610893 509
240091 989913 525
113984 488527 449
250944 714378 509
19719 240809 443
430661 751648 509
150912 93748 375
439288 795089 509
307924 734500 509
266761 838855 525
985338 13570 525
952353 195015 525
452846 50393 449
248416 303658 407
667708 945214 525
891478 306389 525
300159 710823 509
351848 821292 509
753795 854950 525
505660 61665 449
665152 442993 509
515635 327495 470
532968 633720 509
698665 622578 509
685972 610249 509
212992 121886 383
21261 989330 525
136334 784333 509
345074 426440 449
698224 794962 504
117425 976160 525
511976 49866 470
611449 442763 470
278553 603341 470
877380 359584 525
111053 646703 509
890771 942807 507
170451 497010 449
214525 247326 443
192980 645792 509
458681 338049 449
583009 625083 447
539830 181411 470
572283 375387 470
197544 148877 383
707344 145242 509
274198 106336 443
379194 979824 525
999727 443000 525
574835 676694 509
253285 837553 509
622094 569959 447
117045 652974 509
319030 266709 407
266825 139125 443
265429 759881 509
159908 726728 509
126117 119945 336
477414 402016 449
863129 346620 525
850605 81616 525
63611 527608 470
149830 426003 449
81820 991999 525
564284 818403 509
804802 390080 509
460777 4837 449
55053 965099 525
683945 990356 525
633356 60022 509
45864 407664 443
669115 932671 525
459347 754084 509
681234 648809 442
