20673 314945 443
108520 259058 443
658296 738421 504
198855 745093 509
1070 23614 282
646717 1702 509
946688 547463 525
329051 919619 525
864524 442196 525
304306 285740 389
616816 994119 525
156069 561516 470
441757 183474 449
545088 700613 509
815104 932752 525
779551 17099 509
972005 958017 458
311745 286634 389
37936 160841 383
86519 144155 375
302288 738113 509
540953 618329 452
200446 387775 443
616247 204236 470
292184 900163 525
643299 829049 504
492627 954566 525
54132 884668 525
739101 317558 509
969313 551090 525
129266 618452 470
322855 263437 407
431732 896097 525
4251 738701 509
960958 30465 525
82120 179125 383
353135 566190 470
128769 137065 344
297140 391396 441
344627 9081 443
308388 525944 470
34299 985658 525
854949 919282 476
917125 169789 525
569408 456043 470
222656 487681 449
208747 708189 509
233964 685674 509
286997 839115 525
835618 376800 509
209739 479769 449
284356 196303 443
411665 961376 525
98864 631137 509
664634 222403 509
780339 241495 509
241502 16353 443
960071 842917 507
219964 666922 509
38509 289694 443
894916 810340 525
928013 592808 525
122067 960115 525
737781 302286 509
715684 242064 509
2007 292596 443
110001 881036 525
461131 487971 444
300675 954973 525
86802 692294 509
70235 676783 509
322066 631924 509
968395 751717 525
956574 279839 525
973762 39701 525
653216 904750 525
300637 104601 443
813757 337784 509
2618 824594 509
575234 562295 421
963826 489881 525
318106 941909 525
457673 667545 509
843305 416327 525
308636 135728 443
703928 984113 525
926517 35585 525
998300 834125 525
662173 86593 509
906604 626259 525
236407 172865 443
933477 527893 525
826362 693704 504
125382 735507 509
280874 351763 441
264235 647760 509
328925 302140 384
82990 178639 383
699061 121554 509
701491 226066 509
132827 400083 443
480551 630087 509
513483 591885 452
612382 279004 470
418397 47055 449
998798 622316 525
336547 562414 470
553919 550321 377
485057 266457 449
308676 886877 525
104928 59146 351
564518 943944 525
35264 557833 470
25369 861036 525
706658 471391 509
934612 490202 525
635978 443203 509
611182 753235 509
575821 779136 509
820810 868727 525
215779 461584 449
9632 77402 351
866770 912807 476
739298 513345 509
608255 217818 470
909010 462122 525
178060 357299 443
147764 363266 443
573650 854158 525
443293 514692 470
950327 97387 525
356286 272947 441
645124 105791 509
986211 878911 507
265475 388093 441
916126 23894 525
269566 211611 443
793379 602173 509
349523 337117 441
739468 599435 509
619310 691561 509
656917 4825 509
670997 963925 525
872152 180681 525
589403 513804 452
937474 653095 525
150498 475889 449
992966 840601 507
563955 862246 525
738709 31742 509
487730 413528 444
28874 656212 509
662572 659958 323
180308 182081 365
341706 223534 443
414823 511473 444
863764 720946 525
826606 114049 509
65402 219771 386
404263 808069 509
234766 383066 441
424281 12867 449
298303 232113 407
679343 688938 398
456360 221447 449
878791 582119 525
192040 74767 383
519922 352197 470
482549 341000 449
997590 852357 507
806093 653184 504
248973 628014 509
438601 39831 449
238160 591202 470
671493 992406 525
817560 108471 509
899112 422202 525
628711 74403 509
271380 416881 449
66061 604389 470
28699 297261 443
556751 357865 470
495342 809750 509
334483 539177 470
609356 371320 470
41082 72485 340
864611 828051 525
815646 319487 509
706447 591206 509
532666 322957 470
420647 52839 449
52426 135114 354
145058 143441 326
399656 840938 525
731388 434804 509
495733 413884 444
569051 692265 509
899553 48048 525
150686 70761 375
461264 890737 525
93690 8460 351
655596 886774 525
361054 564402 470
414300 196646 449
638210 49944 509
119436 214141 383
931547 869537 476
952208 896088 507
337700 469077 449
533552 45078 470
131383 224763 386
720243 509973 509
242600 636419 509
390864 329357 441
104036 36855 351
438536 228682 449
699833 472776 509
237648 585573 470
206227 395762 443
475298 605200 470
496918 156589 449
452976 314059 449
337130 17334 443
47190 972795 525
22382 295164 443
420324 127937 449
547530 921379 525
544 837323 509
400787 924733 525
452286 713617 509
598077 127960 470
965345 64994 525
383707 945796 525
889306 323027 525
103541 56731 351
133803 396432 443
179525 65368 383
783187 49609 509
385065 946926 525
513998 791875 509
651829 503700 509
626685 961097 525
563852 24464 470
675585 225531 509
161387 595700 470
482900 774109 509
77282 978304 525
474406 725544 509
162203 774872 509
994508 150242 525
